{
  "page": 1,
  "total_results": 1758,
  "total_pages": 88,
  "results": [
    {
      "vote_count": 3300,
      "id": 539,
      "video": false,
      "vote_average": 8.3,
      "title": "Psycho",
      "popularity": 35.20885,
      "poster_path": "\/81d8oyEFgj7FlxJqSDXWr8JH8kV.jpg",
      "original_language": "en",
      "original_title": "Psycho",
      "genre_ids": [ 18, 27, 53 ],
      "backdrop_path": "\/3md49VBCeqY6MSNyAVY6d5eC6bA.jpg",
      "adult": false,
      "overview": "When larcenous real estate clerk Marion Crane goes on the lam with a wad of cash and hopes of starting a new life, she ends up at the notorious Bates Motel, where manager Norman Bates cares for his housebound mother. The place seems quirky, but fine… until Marion decides to take a shower.",
      "release_date": "1960-06-16"
    },
    {
      "vote_count": 1632,
      "id": 426,
      "video": false,
      "vote_average": 8.1,
      "title": "Vertigo",
      "popularity": 29.347118,
      "poster_path": "\/obhM86qyv8RsE69XSMTtT9FdE0b.jpg",
      "original_language": "en",
      "original_title": "Vertigo",
      "genre_ids": [ 9648, 10749, 53 ],
      "backdrop_path": "\/sNlCvWbAEYZZGlPIOdiQc4y1X7d.jpg",
      "adult": false,
      "overview": "A retired San Francisco detective suffering from acrophobia investigates the strange activities of an old friend's wife, all the while becoming dangerously obsessed with her.",
      "release_date": "1958-05-09"
    },
    {
      "vote_count": 858,
      "id": 665,
      "video": false,
      "vote_average": 7.6,
      "title": "Ben-Hur",
      "popularity": 27.946277,
      "poster_path": "\/syPMBvvZsADTTRu3UKuxO1Wflq.jpg",
      "original_language": "en",
      "original_title": "Ben-Hur",
      "genre_ids": [ 28, 12, 18, 36 ],
      "backdrop_path": "\/uOQPSUGG3ZHiDg9ecN8irQNZ4T1.jpg",
      "adult": false,
      "overview": "Judah Ben-Hur, a Palestinian Jew, is battling the Roman empire at the time of Christ. His actions send him and his family into slavery, but an inspirational encounter with Jesus changes everything. He finally meets his rival in a justly famous chariot race and rescues his suffering family.",
      "release_date": "1959-12-26"
    },
    {
      "vote_count": 1097,
      "id": 239,
      "video": false,
      "vote_average": 8.1,
      "title": "Some Like It Hot",
      "popularity": 27.588673,
      "poster_path": "\/pxc9EFCMYkItESpqqrI783yl8Gh.jpg",
      "original_language": "en",
      "original_title": "Some Like It Hot",
      "genre_ids": [ 35, 10749 ],
      "backdrop_path": "\/sdibVacEUaYcM41zmepM0J2xNqq.jpg",
      "adult": false,
      "overview": "Two musicians witness a mob hit and struggle to find a way out of the city before they are found by the gangsters. Their only opportunity is to join an all-girl band as they leave on a tour. To make their getaway they must first disguise themselves as women, then keep their identities secret and deal with the problems this brings - such as an attractive bandmate and a very determined suitor.",
      "release_date": "1959-03-18"
    },
    {
      "vote_count": 1360,
      "id": 213,
      "video": false,
      "vote_average": 7.9,
      "title": "North by Northwest",
      "popularity": 23.552071,
      "poster_path": "\/aNV789h3oHm2pTHK5Bdq5RuiumZ.jpg",
      "original_language": "en",
      "original_title": "North by Northwest",
      "genre_ids": [ 9648, 53 ],
      "backdrop_path": "\/AplR1QRswlXiM65GoifX8sDadME.jpg",
      "adult": false,
      "overview": "Advertising man Roger Thornhill is mistaken for a spy, triggering a deadly cross-country chase.",
      "release_date": "1959-07-07"
    },
    {
      "vote_count": 1018,
      "id": 914,
      "video": false,
      "vote_average": 8.2,
      "title": "The Great Dictator",
      "popularity": 22.082782,
      "poster_path": "\/5Sukn9kDDoUQgoCZOR1YbbjxPoi.jpg",
      "original_language": "en",
      "original_title": "The Great Dictator",
      "genre_ids": [ 35 ],
      "backdrop_path": "\/qkpsvso2neEr7v6YnyMoZtm6R9F.jpg",
      "adult": false,
      "overview": "Dictator Adenoid Hynkel tries to expand his empire while a poor Jewish barber tries to avoid persecution from Hynkel's regime.",
      "release_date": "1940-10-15"
    },
    {
      "vote_count": 649,
      "id": 284,
      "video": false,
      "vote_average": 8.1,
      "title": "The Apartment",
      "popularity": 14.308019,
      "poster_path": "\/8nrQKQjD6z0SJouKHQapXzmjFc6.jpg",
      "original_language": "en",
      "original_title": "The Apartment",
      "genre_ids": [ 35, 18, 10749 ],
      "backdrop_path": "\/vF4d4hAKMcrDE4Y6zLwUSijp32g.jpg",
      "adult": false,
      "overview": "Bud Baxter is a minor clerk in a huge New York insurance company, until he discovers a quick way to climb the corporate ladder. He lends out his apartment to the executives as a place to take their mistresses. Although he often has to deal with the aftermath of their visits, one night he's left with a major problem to solve.",
      "release_date": "1960-06-15"
    },
    {
      "vote_count": 638,
      "id": 967,
      "video": false,
      "vote_average": 7.4,
      "title": "Spartacus",
      "popularity": 13.875974,
      "poster_path": "\/hpICDCTdMIpcqEeNa0k3rcedw2B.jpg",
      "original_language": "en",
      "original_title": "Spartacus",
      "genre_ids": [ 28, 18, 36, 12 ],
      "backdrop_path": "\/z7tLZ3c17Ch6qGIhUuiXBGGwHv0.jpg",
      "adult": false,
      "overview": "The rebellious Thracian Spartacus, born and raised a slave, is sold to Gladiator trainer Batiatus. After weeks of being trained to kill for the arena, Spartacus turns on his owners and leads the other slaves in rebellion. As the rebels move from town to town, their numbers swell as escaped slaves join their ranks. Under the leadership of Spartacus, they make their way to southern Italy, where they will cross the sea and return to their homes.",
      "release_date": "1960-10-06"
    },
    {
      "vote_count": 595,
      "id": 966,
      "video": false,
      "vote_average": 7.5,
      "title": "The Magnificent Seven",
      "popularity": 13.868583,
      "poster_path": "\/7w3JmmyL8GpBvW6BusQfQCSm2h0.jpg",
      "original_language": "en",
      "original_title": "The Magnificent Seven",
      "genre_ids": [ 37 ],
      "backdrop_path": "\/oRSocDAAADYnCkI4jiUeRnlCnwG.jpg",
      "adult": false,
      "overview": "An oppressed Mexican peasant village hires seven gunfighters to help defend their homes.",
      "release_date": "1960-10-22"
    },
    {
      "vote_count": 431,
      "id": 439,
      "video": false,
      "vote_average": 8,
      "title": "La Dolce Vita",
      "popularity": 11.375878,
      "poster_path": "\/mZJ25Th65B2KXM57uIiEzO3Aw81.jpg",
      "original_language": "it",
      "original_title": "La dolce vita",
      "genre_ids": [ 35, 18 ],
      "backdrop_path": "\/b3ofp0vhkbKsrz2V44DimBRKkxf.jpg",
      "adult": false,
      "overview": "Episodic journey of an Italian journalist scouring Rome in search of love.",
      "release_date": "1960-02-05"
    },
    {
      "vote_count": 488,
      "id": 147,
      "video": false,
      "vote_average": 8,
      "title": "The 400 Blows",
      "popularity": 10.903791,
      "poster_path": "\/nKVXTcCtOc3Zuu4yCEDMOUyeXfH.jpg",
      "original_language": "fr",
      "original_title": "Les Quatre Cents Coups",
      "genre_ids": [ 18 ],
      "backdrop_path": "\/rJ4PKIHYarZfVOqpSxcjRIvC1A9.jpg",
      "adult": false,
      "overview": "For young Parisian boy Antoine Doinel, life is one difficult situation after another. Surrounded by inconsiderate adults, including his neglectful parents, Antoine spends his days with his best friend, Rene, trying to plan for a better life. When one of their schemes goes awry, Antoine ends up in trouble with the law, leading to even more conflicts with unsympathetic authority figures.",
      "release_date": "1959-05-04"
    },
    {
      "vote_count": 85,
      "id": 1818,
      "video": false,
      "vote_average": 7.2,
      "title": "Shoot the Piano Player",
      "popularity": 10.257767,
      "poster_path": "\/tdVpsYocOpJLNhU7lDFY2yTMZcY.jpg",
      "original_language": "fr",
      "original_title": "Tirez sur le pianiste",
      "genre_ids": [ 18, 53, 80 ],
      "backdrop_path": "\/gweZZlLcU9fxosxj6HfCWsgsxlG.jpg",
      "adult": false,
      "overview": "Charlie Kohler is a piano player in a bar. The waitress Lena is in love with him. One of Charlie's brother, Chico, a crook, takes refuge in the bar because he is chased by two gangsters, Momo and Ernest. We will discover that Charlie's real name is Edouard Saroyan, once a virtuose who gives up after his wife's suicide. Charlie now has to deal wih Chico, Ernest, Momo, Fido (his youngest brother who lives with him), and Lena...",
      "release_date": "1960-10-21"
    },
    {
      "vote_count": 97,
      "id": 8422,
      "video": false,
      "vote_average": 7.8,
      "title": "Rocco and His Brothers",
      "popularity": 10.220039,
      "poster_path": "\/iVzgqIj3pgDyGToxmC9Q139CCCb.jpg",
      "original_language": "it",
      "original_title": "Rocco e i suoi fratelli",
      "genre_ids": [ 80, 18 ],
      "backdrop_path": "\/nNKhPseIlFRgfCRqqQsQvD37jM1.jpg",
      "adult": false,
      "overview": "When a widow’s family moves to the big city, two of her sons become romantic rivals, with deadly results.",
      "release_date": "1960-10-06"
    },
    {
      "vote_count": 153,
      "id": 5165,
      "video": false,
      "vote_average": 7.6,
      "title": "L'Avventura",
      "popularity": 10.005807,
      "poster_path": "\/c6hdG99CsskD9V0QDyS2l6gDOJa.jpg",
      "original_language": "it",
      "original_title": "L'avventura",
      "genre_ids": [ 18, 9648 ],
      "backdrop_path": "\/tIlSc3NWIFZN75XwMRLfeHWOuan.jpg",
      "adult": false,
      "overview": "In Michelangelo Antonioni's classic of Italian cinema, two lovely young women, Claudia and Anna, join the latter's lover, Sandro, on a boat trip to a remote volcanic island. When Anna goes missing, an extensive search is launched. In the meantime, Sandro and Claudia become involved in a romance despite Anna's disappearance, though the relationship suffers from the guilt and tension brought about by the looming mystery.",
      "release_date": "1960-05-15"
    },
    {
      "vote_count": 433,
      "id": 269,
      "video": false,
      "vote_average": 7.7,
      "title": "Breathless",
      "popularity": 9.882144,
      "poster_path": "\/o5xay1pqvpnIXcFAzgFyWcF6tua.jpg",
      "original_language": "fr",
      "original_title": "À bout de souffle",
      "genre_ids": [ 18, 80 ],
      "backdrop_path": "\/79p6lNdZX7XAKGZ8rxlDC8TU0C7.jpg",
      "adult": false,
      "overview": "A young car thief kills a policeman and tries to persuade a girl to hide in Italy with him.",
      "release_date": "1960-03-16"
    },
    {
      "vote_count": 106,
      "id": 18444,
      "video": false,
      "vote_average": 7,
      "title": "Swiss Family Robinson",
      "popularity": 9.84147,
      "poster_path": "\/jj2Pkkgrasm4A5AUqXwpJhb5VX3.jpg",
      "original_language": "en",
      "original_title": "Swiss Family Robinson",
      "genre_ids": [ 12, 10751 ],
      "backdrop_path": "\/1fPBbfrl9KfQ9W5VOqPT4Wc07ZA.jpg",
      "adult": false,
      "overview": "After being shipwrecked, the Robinson family is marooned on an island inhabited only by an impressive array of wildlife. In true pioneer spirit, they quickly make themselves at home but soon face a danger even greater than nature: dastardly pirates. A rousing adventure suitable for the whole family, this Disney adaptation of the classic Johann Wyss novel stars Dorothy McGuire and John Mills as Mother and Father Robinson.",
      "release_date": "1960-12-21"
    },
    {
      "vote_count": 768,
      "id": 490,
      "video": false,
      "vote_average": 8,
      "title": "The Seventh Seal",
      "popularity": 9.522655,
      "poster_path": "\/iJXSumDrz64AvmFZaHHNBGDO1ex.jpg",
      "original_language": "sv",
      "original_title": "Det sjunde inseglet",
      "genre_ids": [ 14, 18 ],
      "backdrop_path": "\/d9VUlRTovsGbwkUjNR2OGOGrQuO.jpg",
      "adult": false,
      "overview": "When disillusioned Swedish knight Antonius Block returns home from the Crusades to find his country in the grips of the Black Death, he challenges Death to a chess match for his life. Tormented by the belief that God does not exist, Block sets off on a journey, meeting up with traveling players Jof and his wife, Mia, and becoming determined to evade Death long enough to commit one redemptive act while he still lives.",
      "release_date": "1957-02-16"
    },
    {
      "vote_count": 279,
      "id": 2134,
      "video": false,
      "vote_average": 7.5,
      "title": "The Time Machine",
      "popularity": 9.478946,
      "poster_path": "\/cjmluKjmaqLfZmwMEwjki6tvLnS.jpg",
      "original_language": "en",
      "original_title": "The Time Machine",
      "genre_ids": [ 53, 12, 14, 878, 10749 ],
      "backdrop_path": "\/EVaEyQvzu13g6FPnzb4IlbbrGM.jpg",
      "adult": false,
      "overview": "A Victorian Englishman travels to the far future and finds that humanity has divided into two hostile species.",
      "release_date": "1960-08-17"
    },
    {
      "vote_count": 172,
      "id": 31417,
      "video": false,
      "vote_average": 7.5,
      "title": "Eyes Without a Face",
      "popularity": 9.450987,
      "poster_path": "\/orqJcha6R8vxIzL2ggCQm0LjRBa.jpg",
      "original_language": "fr",
      "original_title": "Les Yeux sans visage",
      "genre_ids": [ 18, 27, 53 ],
      "backdrop_path": "\/v573lQJaiYmjSYVWChbrLZsOJn5.jpg",
      "adult": false,
      "overview": "Professor Genessier is guilt-stricken after his daughter's face is disfigured in a car accident. He intends to rebuild his daughter's face via grafting skin tissue; he only needs a supply of donors to experiment on.",
      "release_date": "1960-01-11"
    },
    {
      "vote_count": 272,
      "id": 93,
      "video": false,
      "vote_average": 7.8,
      "title": "Anatomy of a Murder",
      "popularity": 9.026079,
      "poster_path": "\/kDFnM2zlHZirR2ItTo56lyrxuAS.jpg",
      "original_language": "en",
      "original_title": "Anatomy of a Murder",
      "genre_ids": [ 80, 18, 9648, 53 ],
      "backdrop_path": "\/aFfbSVwzXH5tCi5MQN0idkoFbk0.jpg",
      "adult": false,
      "overview": "The film pits a humble small-town lawyer against a hard-headed big city prosecutor. Emotions flare as a jealous army lieutenant pleads innocent to murdering the rapist of his seductive, beautiful wife.",
      "release_date": "1959-07-01"
    }
  ]
}